{
  "type": "service_account",
  "project_id": "imie-vscode",
  "private_key_id": "d372fdf4c6f310bc0bc6191bf8693b3a21615f21",
  "private_key": "-----BEGIN PRIVATE KEY-----\nMIIEvgIBADANBgkqhkiG9w0BAQEFAASCBKgwggSkAgEAAoIBAQDmO0cpHCqsNleF\nMGoC6Gx4TTyY0jV7igL4aSXL+z7GhOTIuqoj+YqoJ0wequ9ULj6O0LflH2k8EtNM\nDInPXcRJDYgS4/j0RETbfIWxsLi6wo0nwftWwerVHjMT/i6t9UUr1EeCXIInUc49\ngIu89YpP85UOhUWYgoxtZrAEMW8vyODVw7idBQ0LdQoGMkiccZp18eIeMGi9kVty\nLAlsFS/amyYsFzJMmYV6gazAJf69r+jgOEMHrnHZAe8A8Atsrlwydd/1sW/YEHXC\nGvVRIzI/Kp8khhVnFaIKUFXosmQ9s+i5cZq4dM2aIGew0sk/OHXqwaMCZ8JTYaFU\nAYIz1DP9AgMBAAECggEAYNO8ZVdBwSSnoU3PwAJVIDFHk3QQ5zCPeD7slQHJEH+y\nopMS3EdmX7sLQfic5/f8+l5ggN25ifjW4ayCRvKGCz1EJcG4Ia8WkIKpzaXnwy/w\nYrCsDnxG0bO+QqHLqwC0wy6nlnVmjbfTd704x9MyhNaKMU2ui+oXuikOTO0neF4E\nkr8aTfBUGfzornwVlAyNQRrBiydfYbXnsLAIg/pA2mkws26lRWValFN8U4C/IQby\n0iYbY29uu6wHVKYHMVhVoMYf/5QIfjdftVM9DaKMl1gZOw2t3iYqqOk9/3TI988H\nwsSZ+1E3/Gy/2+VlnQ3vo9EjKmI16Bc0B3nWaDHu9wKBgQD7CWIgyUlqXO1BpQbJ\nxX4F2D1U8GFaMlEl79ZG2EX6INmgJgxkUBQ09D+uQMi6rFTxUgCXBHRk3LojaRmr\nv59nGNJsj7GspCZdMfUW9GBKo/cZ0l6R3/rfmGa9FXQ1c+zwSTHJVeXCcQbFiCfZ\nU2yiT8sjMMx29yStbDQ4vPWfrwKBgQDqyJcQQmJTlkZVWVGv42Q7TSVX5jaTYBBN\ncrJU3O0ym6Om/9ubGhCOOQvTQLYo8cCUNdtfTFH4aV/pWHPvwJrPu8y1yXt7f0wD\n5A0ot+00aNlualPAz7tJF5VIEafPoJb10jX+WU+LIjhej0BIgEJte0r+An68XBfW\nPO1wO2jGEwKBgAtsI+DmB8clL057WdG4gMF3U2MYBPX7sCGPxio3EQgOkphs4sd1\ntVWrf3JIVFnaGYtZddlpRHqKaJXP5HEiKPih8oEqEKWQWoaHDWXb/L2otEeigNcW\nX+3om1QjM8Ry3+cXDYLhu7CbP/mg9l83IoxIITAaulL3b93MPJwQTQTVAoGBAJJL\nEvXqp2H2DTU5RpEWW2ooE9DFfdQu03musjf2wUX7fOmeG7R1dUNpgFjNxbOVj63K\nMTscTyc+YakAmJ0Xol82YcQUG4FEPJVgEGMC2CcD/hey4SUPS1+r9jTF646QPgBG\nT6aA9/N2CzHAiQmkAcA+Rugnndi4eZHgvQJlwk9JAoGBAM0xGJMUvQKQvJ9BEX46\nOZwzpgSrFVftfkwGe+AKacN8gBv80pL2pYSlzMQvHkbgptfBvmBJRpeXrXA8IN2E\nD2H+FRCqMH+KCFTX1zfJ6C5cXuPjc0q+mhSy55UGS75h+2u191hzRplV3aqkHwlg\nr2+6zPXGgWjukVibrTZeIv3v\n-----END PRIVATE KEY-----\n",
  "client_email": "firebase-adminsdk-i5vz8@imie-vscode.iam.gserviceaccount.com",
  "client_id": "105773316000837158123",
  "auth_uri": "https://accounts.google.com/o/oauth2/auth",
  "token_uri": "https://oauth2.googleapis.com/token",
  "auth_provider_x509_cert_url": "https://www.googleapis.com/oauth2/v1/certs",
  "client_x509_cert_url": "https://www.googleapis.com/robot/v1/metadata/x509/firebase-adminsdk-i5vz8%40imie-vscode.iam.gserviceaccount.com"
}
